stm32f7xx_hal_flash_ex.c:657:13:FLASH_MassErase	8	static
stm32f7xx_hal_flash_ex.c:303:19:HAL_FLASHEx_OBProgram	16	static
stm32f7xx_hal_flash_ex.c:402:6:HAL_FLASHEx_OBGetConfig	0	static
stm32f7xx_hal_flash_ex.c:688:6:FLASH_Erase_Sector	16	static
stm32f7xx_hal_flash_ex.c:174:19:HAL_FLASHEx_Erase	32	static
stm32f7xx_hal_flash_ex.c:247:19:HAL_FLASHEx_Erase_IT	16	static
