stm32f7xx_hal_msp.c:59:6:HAL_MspInit	8	static
stm32f7xx_hal_msp.c:88:6:HAL_ADC_MspInit	40	static
stm32f7xx_hal_msp.c:126:6:HAL_ADC_MspDeInit	8	static
stm32f7xx_hal_msp.c:157:6:HAL_CRC_MspInit	8	static
stm32f7xx_hal_msp.c:174:6:HAL_CRC_MspDeInit	0	static
stm32f7xx_hal_msp.c:191:6:HAL_DCMI_MspInit	40	static
stm32f7xx_hal_msp.c:259:6:HAL_DCMI_MspDeInit	8	static
stm32f7xx_hal_msp.c:301:6:HAL_DMA2D_MspInit	16	static
stm32f7xx_hal_msp.c:321:6:HAL_DMA2D_MspDeInit	0	static
stm32f7xx_hal_msp.c:341:6:HAL_I2C_MspInit	40	static
stm32f7xx_hal_msp.c:394:6:HAL_I2C_MspDeInit	0	static
stm32f7xx_hal_msp.c:436:6:HAL_LTDC_MspInit	40	static
stm32f7xx_hal_msp.c:527:6:HAL_LTDC_MspDeInit	8	static
stm32f7xx_hal_msp.c:591:6:HAL_QSPI_MspInit	48	static
stm32f7xx_hal_msp.c:646:6:HAL_QSPI_MspDeInit	8	static
stm32f7xx_hal_msp.c:678:6:HAL_RTC_MspInit	0	static
stm32f7xx_hal_msp.c:695:6:HAL_RTC_MspDeInit	0	static
stm32f7xx_hal_msp.c:712:6:HAL_SD_MspInit	48	static
stm32f7xx_hal_msp.c:754:6:HAL_SD_MspDeInit	8	static
stm32f7xx_hal_msp.c:785:6:HAL_SPDIFRX_MspInit	32	static
stm32f7xx_hal_msp.c:814:6:HAL_SPDIFRX_MspDeInit	0	static
stm32f7xx_hal_msp.c:837:6:HAL_SPI_MspInit	40	static
stm32f7xx_hal_msp.c:875:6:HAL_SPI_MspDeInit	8	static
stm32f7xx_hal_msp.c:902:6:HAL_TIM_Base_MspInit	32	static
stm32f7xx_hal_msp.c:985:6:HAL_TIM_PWM_MspInit	8	static
stm32f7xx_hal_msp.c:1002:6:HAL_TIM_MspPostInit	32	static
stm32f7xx_hal_msp.c:1108:6:HAL_TIM_Base_MspDeInit	0	static
stm32f7xx_hal_msp.c:1191:6:HAL_TIM_PWM_MspDeInit	0	static
stm32f7xx_hal_msp.c:1208:6:HAL_UART_MspInit	48	static
stm32f7xx_hal_msp.c:1268:6:HAL_UART_MspDeInit	8	static
stm32f7xx_hal_msp.c:1419:6:HAL_SDRAM_MspInit	48	static
stm32f7xx_hal_msp.c:1505:6:HAL_SDRAM_MspDeInit	8	static
stm32f7xx_hal_msp.c:1517:6:HAL_SAI_MspInit	40	static
stm32f7xx_hal_msp.c:1567:6:HAL_SAI_MspDeInit	8	static
