stm32f7xx_it.c:59:6:SysTick_Handler	0	static
stm32f7xx_it.c:80:6:TIM6_DAC_IRQHandler	0	static
stm32f7xx_it.c:94:6:ETH_IRQHandler	0	static
stm32f7xx_it.c:108:6:OTG_FS_IRQHandler	0	static
stm32f7xx_it.c:122:6:OTG_HS_IRQHandler	0	static
stm32f7xx_it.c:136:6:LTDC_IRQHandler	0	static
stm32f7xx_it.c:150:6:DMA2D_IRQHandler	0	static
